Assignment
…
pred <- predict(classifier,test_pca)
CM <- confusionMatrix(pred,reference = test_pca$classe)
model_comparison <- merge(model_comparison,as.data.frame(CM$overall))
colnames(model_comparison)[ncol(model_comparison)] <- "eXGB"

Model selection and application on the quiz dataset

the best model is eXGB tuned

model_comparison %>% as_tibble()

## # A tibble: 343 x 3
##         NNt   KNn  eXGB
##       <dbl> <dbl> <dbl>
##  1 6.16e- 1 0.916 0.934
##  2 5.13e- 1 0.916 0.934
##  3 6.05e- 1 0.916 0.934
##  4 6.27e- 1 0.916 0.934
##  5 2.84e- 1 0.916 0.934
##  6 0.       0.916 0.934
##  7 9.45e-51 0.916 0.934
##  8 6.16e- 1 0.894 0.934
##  9 5.13e- 1 0.894 0.934
## 10 6.05e- 1 0.894 0.934
## # ... with 333 more rows
…
